--------------------------------------------
0.        2018-05-10 20:00 Atlantas-Zeme
--------------------------------------------
1.        2018-05-10 20:00 Atlantas-Zeme
--------------------------------------------
2.        2018-05-10 20:00 Atlantas-Zeme
--------------------------------------------
3.        2018-05-10 20:00 Atlantas-Zeme
--------------------------------------------
4.        2018-05-10 20:00 Atlantas-Zeme
--------------------------------------------
5.        2018-05-10 20:00 Atlantas-Zeme
